{
    "intro-dme": {
        "topic": "[Intro to DME](../slides/intro-dme.pdf)",
        "materials": ["[Syllabus](syllabus.html)", "[Schedule](schedule.html)",
                      "[Meet the Teacher](http://cs1331.gatech.edu/slides/meet-simpkins.html)",
                      "[Video: Getting Started](https://youtu.be/order)",
                      "Exercise: [CS 2316 Pre-test](../exercises/pre-test.html)"],
        "order": [1]
    },
    "intro-python": {
        "topic": "[Intro to Python](../slides/intro-python.pdf)",
        "materials": ["[ITCS - Introduction](http://interactivepython.org/runestone/static/thinkcspy/GeneralIntro/introduction.html)",
                      "TP 1",
                      "[Video: Intro to Python](https://youtu.be/ZDCHBkTMfE8)"],
        "order": [2]
    },
    "values-variables": {
        "topic": "[Values and Variables](../slides/python-values-variables.pdf)",
        "materials": ["[ITCS - Simple Data](http://interactivepython.org/runestone/static/thinkcspy/SimplePythonData/toctree.html)", "TP 2", "[Video: Values and Variables](https://youtu.be/iKG_hAXy0qQ)",
                     "[Drill - Values and Variables](../exercises/values-variables.html)"],
        "order": [3]
    },
    "functions": {
        "topic": "[Functions](../slides/python-functions.pdf)",
        "materials": ["[CS1 Python Functions](../slides/cs1-python-functions.pdf)", "TP 3"],
        "order": [4]
    },
    "modules-programs": {
        "topic": "[Modules and Programs](../slides/python-modules-programs.pdf)",
        "materials": ["TP 1,14", "Exercise: [BMI Module](../exercises/bmi.html)", "Exercise: [Hangman](../exercises/hangman.html)"],
        "order": [5]
    },
    "data-structures": {
        "topic": "[Data Structures](../slides/python-data-structures.pdf)",
        "materials": ["[ITCS - Lists](http://interactivepython.org/runestone/static/thinkcspy/Lists/toctree.html)", "[ITCS - Dictionaries](http://interactivepython.org/runestone/static/thinkcspy/Dictionaries/toctree.html)", "TP 10,11,12", "[Video: Data Structures](https://youtu.be/TtAQxtgPOwI)"],
        "order": [6]
    },
    "ipython": {
        "topic": "[iPython](../slides/ipython.pdf)",
        "materials": [""],
        "order": [7]
    },
    "control-structures": {
        "topic": "[Control Structures](../slides/python-control-structures.pdf)",
        "materials": ["[ITCS - Selection](http://interactivepython.org/runestone/static/thinkcspy/Selection/toctree.html)",
                      "[ITCS - Iteration](http://interactivepython.org/runestone/static/thinkcspy/MoreAboutIteration/toctree.html)", "TP 5, 7",
                      "Drill: [Data Transformation](../exercises/data-transformation.html)",
                      "Exercise: [Data Utilities](../exercises/data-util.html)",
                      "Exercise: [Grades Module](../exercises/grades.html)"],
        "order": [8]
    },
    "functional-programming": {
        "topic": "[Functional programming](../slides/python-functional-programming.pdf)",
        "materials": ["TP 19"],
        "order": [9]
    },
    "data-representation": {
        "topic": "[Data Representation](../slides/python-data-representation.pdf)",
        "materials": [""],
        "order": [100]
    },
    "classes-objects": {
        "topic": "[Classes and Objects](../slides/python-classes-objects.pdf)",
        "materials": ["[ITCS - Classes and Objects](http://interactivepython.org/runestone/static/thinkcspy/ClassesBasics/toctree.html)", "[OOP Code](../code/classes)",
                      "TP 15 - 18",
                     "[Exercise: Treating People as Objects](../exercises/people-objects.html)"],
        "order": [10]
    },
    "review1": {
        "topic": "Review 1",
        "materials": ["[dme-exam1-practice.pdf](cs2316-exam1-practice.pdf)",
                      "[cs2316-exam1-practice-answers.pdf](cs2316-exam1-practice-answers.pdf)",
                     "[Exam 1 Practice Problems](../exercises/exam1-practice.html)"],
        "order": [11]
    },
    "exam1": {
        "topic": "**Exam 1**",
        "materials": ["[cs2316-exam1-practice.pdf](cs2316-exam1-practice.pdf)",
                      "[cs2316-exam1-practice-answers.pdf](cs2316-exam1-practice-answers.pdf)"],
        "order": [12]
    },
    "pq1": {
        "topic": "**Programming Extra Credit 1**",
        "materials": [""],
        "order": [100]
    },
    "file-io": {
        "topic": "[File IO](../slides/python-file-io.pdf)",
        "materials": ["IP 8", "[Exercise: Tree](../exercises/tree.html)"],
        "order": [13]
    },
    "csv-files": {
        "topic": "[CSV Files](../slides/python-csv-files.pdf)",
        "materials": ["IP 8", "Exercise: [Student Emails](../exercises/student-emails.html) ([Sample Answer](../exercises/student_emails.py))", "Exercise: [Tides](../exercises/tides.html)", "Exercise: [Calculate Grades](../exercises/calc-grades.html)"],
        "order": [14]
    },
    "xml": {
        "topic": "[Data Exchange Formats](../slides/xml.pdf)",
        "materials": ["IP 8",
                      "[Python ElementTree API](https://docs.python.org/3/library/xml.etree.elementtree.html)",
                      "[XML Details](../slides/xml-details.pdf)",
                      "[Python XML and Database APIs](../slides/python-xml-database.pdf)",
                      "[people.xml](../code/structured-files/people.xml)",
                      "Exercise: [Books](../exercises/books.html)"],
        "order": [100]
    },
    "json": {
        "topic": "[JavaScript Object Notation](../slides/json.pdf)",
        "materials": ["IP 8", "[JSON Spec](http://json.org/)", "Exercise: [Data Converter](../exercises/data-converter.html)"],
        "order": [100]
    },
    "data-exchange-formats": {
        "topic": "[Data Exchange Formats](../slides/python-data-exchange-formats.pdf)",
        "materials": ["IP 8", "[XML Details](../slides/xml-details.pdf)",
                      "[Python XML and Database APIs](../slides/python-xml-database.pdf)",
                      "[JSON Spec](http://json.org/)",
                      "[people.xml](../code/structured-files/people.xml)",
                      "Exercise: [Books](../exercises/books.html)"],
        "order": [15]
    },
    "html": {
        "topic": "[HTML](../slides/html.pdf)",
        "materials": ["IP 8", "<a href=\"\"></a>"],
        "order": [16]
    },
    "regular-expressions": {
        "topic": "[Regular Expressions](../slides/python-regular-expressions.pdf)",
        "materials": ["IP 7", "[Python RE Module](https://docs.python.org/3/library/re.html)", "[Python Regex HowTo](https://docs.python.org/3/howto/regex.html)"],
        "order": [17]
    },
    "text-processing": {
        "topic": "[Text Processing](../slides/python-text-processing.pdf)",
        "materials": ["IP 7", "[Python RE Module](https://docs.python.org/3/library/re.html)", "[Python Regex HowTo](https://docs.python.org/3/howto/regex.html)"],
        "order": [100]
    },
    "web-scraping": {
        "topic": "[Web Scraping](../slides/python-web-scraping.pdf)",
        "materials": ["[Beautiful Soup](https://www.crummy.com/software/BeautifulSoup/bs4/doc/)",
                      "[wx.py](../code/web/wx.py)",
                      "[movie.py](../code/web/movie.py)",
                      "Exercise: [Company Scraper](../exercises/company-scraper.html)"],
        "order": [18]
    },
    "web-services": {
        "topic": "[Web Services](../slides/python-web-services.pdf)",
        "materials": ["IP 8", "[Requests](http://docs.python-requests.org/en/master/)", "[OAuth](https://oauth.net/)", "[JSON Spec](http://json.org/)"],
        "order": [19]
    },
    "relational-model": {
        "topic": "[Relational Model](../slides/relational-model.pdf)</a>",
        "materials": [""],
        "order": [100]
    },
    "basic-relational-design": {
        "topic": "[Basic Relational Design](../slides/basic-relational-design.pdf)",
        "materials": [""],
        "order": [100]
    },
    "relational-databases": {
        "topic": "[Relational Databases](../slides/relational-databases.pdf)",
        "materials": [""],
        "order": [100]
    },
    "sqlite": {
        "topic": "[SQLite](../slides/sqlite.pdf)",
        "materials": ["Exercise: [Exercise: Dorms Queries](../exercises/dorms-sqlite.html)",
                      "Exercise: [Registration Database](../exercises/registration-database.html)",
                      "Exercise: [Pubs Queries](../exercises/pubs-queries.sql)"],
        "order": [100]
    },
    "sql-ddl": {
        "topic": "[SQL DDL](../slides/sql-ddl.pdf)",
        "materials": ["[MySQL Guide](../databases/mysql.html)",
                      "Exercise: [Registration Database](../exercises/registration-database.html)",
                     "Exercise: [Pubs Queries](../exercises/pubs-queries.sql)"],
        "order": [20]
    },
    "sql-crud": {
        "topic": "[SQL CRUD](../slides/sql-crud.pdf)",
        "materials": ["[MySQL Guide](../databases/mysql.html)",
                      "Exercise: [Registration Database](../exercises/registration-database.html)",
                     "Exercise: [Pubs Queries](../exercises/pubs-queries.sql)"],
        "order": [21]
    },
    "sql-queries": {
        "topic": "[SQL Queries](../slides/sql-queries.pdf)",
        "materials": ["[MySQL Guide](../databases/mysql.html) - on databases course web site",
                      "Exercise: [Registration Database](../exercises/registration-database.html)",
                      "Exercise: [Exercise: Dorms Queries](../exercises/dorms-queries.html)"],
        "order": [22,23]
    },
    "python-db-api": {
        "topic": "[Python Database API](../slides/python-db-api.pdf)",
        "materials": ["[Python XML and Database APIs](../slides/python-xml-database.pdf)",
                      "[Python DB-API](https://www.python.org/dev/peps/pep-0249/)",
                      "[Python SQLite API](https://docs.python.org/3/library/sqlite3.html)",
                      "[PyMySQL](http://pymysql.readthedocs.io/en/latest/)"],
        "order": [24]
    },
    "python-xml-databases": {
        "topic": "[Python XML and Database APIs](../slides/python-xml-database.pdf)",
        "materials": [""],
        "order": [100]
    },
    "review2": {
        "topic": "Review 2",
        "materials": ["[cs2316-exam2-practice.pdf](cs2316-exam2-practice.pdf)",
                      "[cs2316-exam2-practice-answers.pdf](cs2316-exam2-practice-answers.pdf)"],
        "order": [25]
    },
    "exam2": {
        "topic": "**Exam 2**",
        "materials": ["[cs2316-exam2-practice.pdf](cs2316-exam2-practice.pdf)",
                      "[cs2316-exam2-practice-answers.pdf](cs2316-exam2-practice-answers.pdf)"],
        "order": [26]
    },
    "python-guis": {
        "topic": "[Python GUIs](../slides/pyqt-guis.pdf)",
        "materials": ["[GUI Example Code](../code/gui)"],
        "order": [27, 28, 29]
    },
    "pq2": {
        "topic": "**Programming Extra Credit 2**",
        "materials": [""],
        "order": [100]
    },
    "scipy": {
        "topic": "[Data Analytics in Python](../slides/scipy.pdf)",
        "materials": ["[Example code](https://gitlab.com/datamastery/datamastery.gitlab.io/tree/master/code/analytics)",
                      "[SciPy.org](https://scipy.org/)"],
        "order": [30]
    },
    "numpy": {
        "topic": "[NumPy](../slides/numpy.pdf)",
        "materials": ["[Numpy Manual](https://docs.scipy.org/doc/numpy-1.14.0/index.html)"],
        "order": [31]
    },
    "pandas": {
        "topic": "[Pandas](../slides/pandas.pdf)",
        "materials": ["[Pandas.PyData.org](http://pandas.pydata.org/)",
                     "Exercise: [Health Data Analysis](../exercises/health-analysis.html)"],
        "order": [32,33,34]
    },
    "python-dataviz": {
        "topic": "[Data Visualization with Python](../slides/python-dataviz.pdf)",
        "materials": ["[Matplotlib.org](https://matplotlib.org/)"],
        "order": [35]
    },
    "data-analysis": {
        "topic": "[Data Analysis](../slides/data-analysis.pdf)",
        "materials": [""],
        "order": [100]
    },
    "review3": {
        "topic": "[Review 3](../slides/review3.pdf)",
        "materials": ["[cs2316-exam3-practice.pdf](cs2316-exam3-practice.pdf)",
                     "[cs2316-exam3-practice-answers.pdf](cs2316-exam3-practice-answers.pdf)"],

        "order": [36]
    },
    "exam3": {
        "topic": "**Exam 3**",
        "materials": [""],
        "order": [37]
    },
    "pq3": {
        "topic": "**Programming Extra Credit 3**",
        "materials": [""],
        "order": [100]
    },
    "flask": {
        "topic": "[Flask](../slides/flask.pdf)",
        "materials": ["IP 9", "[Flask Web site](http://flask.pocoo.org/)",
                      "[Gradeboook App](../code/web/gradebook.zip)"],
        "order": [38]
    },
    "scikit-learn": {
        "topic": "[Scikit-learn](../slides/scikit-learn.pdf)",
        "materials": ["[Scikit-learn.org](http://scikit-learn.org/stable/)"],
        "order": [100]
    },
    "nlp": {
        "topic": "[Natural Language Processing](../slides/nlp.pdf)",
        "materials": ["[NLTK](http://www.nltk.org/)"],
        "order": [100]
    },
    "hadoop": {
        "topic": "[Hadoop](../slides/hadoop.pdf)",
        "materials": [""],
        "order": [100]
    },
    "spark": {
        "topic": "[Spark](../slides/spark.pdf)",
        "materials": [""],
        "order": [100]
    },
    "final-review": {
        "topic": "Final Review",
        "materials": ["[cs2316-final-exam-practice.pdf](cs2316-final-exam-practice.pdf)",
                     "[cs2316-final-exam-practice-answers.pdf](cs2316-final-exam-practice-answers.pdf)"
        ],

        "order": [36]
    },
    "relational-databases": {
        "topic": "[Relational Databases](../slides/relational-databases.pdf)",
        "materials": [""],
        "order": [100]
    },
    "database-normalization": {
        "topic": "[Database Normalization](../slides/db-normalization.pdf)",
        "materials": [""],
        "order": [100]
    },
    "git": {
        "topic": "[Git](http://csimpkins.github.io/objects-design/slides/git-basics.pdf)",
        "materials": ["[Git Web Site](https://git-scm.com/)", "[Pro Git](https://git-scm.com/book/en/v2)"],
        "order": [100]
    },
    "scala-intro": {
        "topic": "[Intro to Scala](slides/scala-intro.pdf)",
        "materials": ["PIS, Ch 2"],
        "order": [100]
    },
    "scala-values-variables": {
        "topic": "[Values and Variables](slides/scala-values-variables.pdf)",
        "materials": [
            "Primary reading: PIS, Ch 2, 3, 5",
            "Code: [Basics](code.html#basics)"
        ],
        "order": [100]
    },
    "scala-control-structures": {
        "topic": "[Scala Control Structures](slides/scala-control-structures.pdf)",
        "materials": [
            "Primary reading: PIS, Ch 7",
            "Code: [Basics](code.html#basics)"
        ],
        "order": [100]
    },
    "scala-function-basics": {
        "topic": "[Scala Function Basics](slides/scala-function-basics.pdf)",
        "materials": [
            "Primary reading: PIS, Ch 2.3, 8.1-8.4, 8.8, 8.9",
            "Code: [Basics](code.html#basics)"
        ],
        "order": [100]
    },
    "scala-classes-objects": {
        "topic": "[Scala Classes and Objects](slides/scala-classes-objects.pdf)",
        "materials": [
            "Primary reading: PIS, Ch 4, 6",
            "Code: [Basics](code.html#basics)"
        ],
        "order": [100]
    },
    "scala-functional-abstraction": {
        "topic": "[Scala Functional Abstraction](slides/scala-functional-abstraction.pdf)",
        "materials": ["PIS, Ch 8.5 - 8.7, 9"],
        "order": [100]
    },
    "scala-oop": {
        "topic": "[Object-oriented Programming in Scala](slides/scala-oop.pdf)",
        "materials": ["PIS, Ch 10, 11"],
        "order": [100]
    },
    "scala-case-classes": {
        "topic": "[Scala Case Classes](slides/scala-case-classes.pdf)",
        "materials": ["PIS, Ch 15"],
        "order": [100]
    },
    "scala-collections": {
        "topic": "[Scala Collections](slides/scala-collections.pdf)",
        "materials": ["PIS, Ch 16, 17, 24, 25"],
        "order": [100]
    }
}
